{
  "version": "1.0.0-*",
  "buildOptions": {
    "emitEntryPoint": true
  },

  "runtimes": {
    "win10-x64": {},
    "debian.8-x64":  {}
  },

  "dependencies": {
    "Microsoft.NETCore.App": "1.0.0",
    "Mindscape.Raygun4Net.AspNetCore": "5.3.2"
  },

  "frameworks": {
    "netcoreapp1.0": {
      "imports": "dnxcore50"
    }
  }
}
